F_666 + ... + F_1234561 is divisible by 15513751
F_666 + ... + F_1234561 is NOT divisible by 18334433
F_978000000 + ... + F_978002345 is divisible by 10094978
F_978000000 + ... + F_978002345 is NOT divisible by 35332423
F_998000000 + ... + F_1000000000 is divisible by 15625
F_998000000 + ... + F_1000000000 is NOT divisible by 78125
F_998000000 + ... + F_1000000000 is divisible by 7
F_998000000 + ... + F_1000000000 is divisible by 11
F_998000000 + ... + F_1000000000 is divisible by 13
F_998000000 + ... + F_1000000000 is divisible by 41
F_998000000 + ... + F_1000000000 is NOT divisible by 1681
F_1000000000 + ... + F_1000000000 is divisible by 1
F_1000000000 + ... + F_1000000000 is divisible by 3
F_1000000000 + ... + F_1000000000 is divisible by 5
F_1000000000 + ... + F_1000000000 is divisible by 1953125
F_1000000000 + ... + F_1000000000 is NOT divisible by 9765625
F_1000000000 + ... + F_1000000000 is divisible by 7
F_1000000000 + ... + F_1000000000 is divisible by 11
